…
### Example: Return comprehensive statistics for Sacramento County, CA

The following code returns comprehensive statistics by week from January
1st, 2020 to December 31st, 2020. Comprehensive statistics include …

``` r
data <- monitor_drought(aoi = "06067",
                        var = "cs",
                        start_date = "1/1/2020",
                        end_date = "12/31/2020")
data
```

    ## # A tibble: 53 × 28
    ##    MapDate    FIPS  County       State None_Area D0_Area D1_Area D2_Area D3_Area
    ##    <date>     <chr> <chr>        <chr>     <dbl>   <dbl>   <dbl>   <dbl>   <dbl>
    ##  1 2020-12-29 06067 Sacramento … CA            0    989.    989.    989.    167.
    ##  2 2020-12-22 06067 Sacramento … CA            0    989.    989.    989.    167.
    ##  3 2020-12-15 06067 Sacramento … CA            0    989.    989.    989.    167.
    ##  4 2020-12-08 06067 Sacramento … CA            0    989.    989.    989.    167.
    ##  5 2020-12-01 06067 Sacramento … CA            0    989.    989.    890.    167.
    ##  6 2020-11-24 06067 Sacramento … CA            0    989.    989.    890.    167.
    ##  7 2020-11-17 06067 Sacramento … CA            0    989.    989.    890.    167.
    ##  8 2020-11-10 06067 Sacramento … CA            0    989.    989.    890.    167.
    ##  9 2020-11-03 06067 Sacramento … CA            0    989.    989.    890.    167.
    ## 10 2020-10-27 06067 Sacramento … CA            0    989.    989.    890.    167.
    ## # … with 43 more rows, and 19 more variables: D4_Area <dbl>,
    ## #   None_Area_Percent <dbl>, D0_Area_Percent <dbl>, D1_Area_Percent <dbl>,
    ## #   D2_Area_Percent <dbl>, D3_Area_Percent <dbl>, D4_Area_Percent <dbl>,
    ## #   None_Population <dbl>, D0_Population <dbl>, D1_Population <dbl>,
    ## #   D2_Population <dbl>, D3_Population <dbl>, D4_Population <dbl>,
    ## #   None_Population_Percent <dbl>, D0_Population_Percent <dbl>,
    ## #   D1_Population_Percent <dbl>, D2_Population_Percent <dbl>, …
…
